{
  "implemented": true,
  "name": "Lanturn",
  "nationalPokedexNumber": 171,
  "primaryType": "water",
  "secondaryType": "electric",
  "abilities": [
    "voltabsorb",
    "illuminate",
    "h:waterabsorb"
  ],
  "drops": {
    "amount": 4,
    "entries": [
      {
        "item": "minecraft:prismarine_crystals",
        "quantityRange": "0-2"
      },
      {
        "item": "cobblemon:deep_sea_scale",
        "percentage": 5.0
      },
      {
        "item": "cobblemon:persim_berry",
        "percentage": 5.0
      }
    ]
  },
  "baseStats": {
    "hp": 125,
    "attack": 58,
    "defence": 58,
    "special_attack": 76,
    "special_defence": 76,
    "speed": 67
  },
  "catchRate": 75,
  "maleRatio": 0.5,
  "shoulderMountable": false,
  "baseExperienceYield": 161,
  "experienceGroup": "slow",
  "eggCycles": 20,
  "eggGroups": [
    "water_2"
  ],
  "behaviour": {
    "moving": {
      "walk": {
        "walkSpeed": 0.26
      },
      "swim": {
        "canSwimInWater": true,
        "canBreatheUnderwater": true
      }
    },
    "resting": {
      "canSleep": true,
      "willSleepOnBed": false,
      "depth": "normal",
      "light": "0-4"
    }
  },
  "moves": [
    "1:bubble",
    "1:eerieimpulse",
    "1:electroball",
    "1:spitup",
    "1:spotlight",
    "1:stockpile",
    "1:supersonic",
    "1:swallow",
    "1:thunderwave",
    "1:watergun",
    "12:bubblebeam",
    "16:confuseray",
    "20:spark",
    "24:charge",
    "29:signalbeam",
    "30:discharge",
    "36:aquaring",
    "42:flail",
    "48:takedown",
    "54:hydropump",
    "54:iondeluge",
    "tm:agility",
    "tm:amnesia",
    "tm:attract",
    "tm:blizzard",
    "tm:bounce",
    "tm:brine",
    "tm:captivate",
    "tm:charge",
    "tm:chargebeam",
    "tm:chillingwater",
    "tm:confide",
    "tm:confuseray",
    "tm:curse",
    "tm:dazzlinggleam",
    "tm:dive",
    "tm:doubleedge",
    "tm:doubleteam",
    "tm:eerieimpulse",
    "tm:electricterrain",
    "tm:electroball",
    "tm:electroweb",
    "tm:endure",
    "tm:facade",
    "tm:flash",
    "tm:flipturn",
    "tm:frustration",
    "tm:gigaimpact",
    "tm:hail",
    "tm:hiddenpower",
    "tm:hydropump",
    "tm:hyperbeam",
    "tm:icebeam",
    "tm:icywind",
    "tm:liquidation",
    "tm:muddywater",
    "tm:naturalgift",
    "tm:protect",
    "tm:psybeam",
    "tm:raindance",
    "tm:rest",
    "tm:return",
    "tm:round",
    "tm:scald",
    "tm:screech",
    "tm:secretpower",
    "tm:shockwave",
    "tm:sleeptalk",
    "tm:snore",
    "tm:substitute",
    "tm:surf",
    "tm:swagger",
    "tm:takedown",
    "tm:terablast",
    "tm:thunder",
    "tm:thunderbolt",
    "tm:thunderwave",
    "tm:toxic",
    "tm:voltswitch",
    "tm:waterfall",
    "tm:waterpulse",
    "tm:whirlpool",
    "tm:wildcharge",
    "tutor:aquatail",
    "tutor:attract",
    "tutor:bounce",
    "tutor:bubble",
    "tutor:confuseray",
    "tutor:curse",
    "tutor:dive",
    "tutor:doubleedge",
    "tutor:doubleteam",
    "tutor:endure",
    "tutor:flail",
    "tutor:flash",
    "tutor:frustration",
    "tutor:healbell",
    "tutor:hiddenpower",
    "tutor:hydropump",
    "tutor:hyperbeam",
    "tutor:icywind",
    "tutor:mimic",
    "tutor:protect",
    "tutor:raindance",
    "tutor:rest",
    "tutor:return",
    "tutor:risingvoltage",
    "tutor:shockwave",
    "tutor:signalbeam",
    "tutor:sleeptalk",
    "tutor:snore",
    "tutor:spark",
    "tutor:substitute",
    "tutor:suckerpunch",
    "tutor:supersonic",
    "tutor:surf",
    "tutor:swagger",
    "tutor:takedown",
    "tutor:thunder",
    "tutor:thunderwave",
    "tutor:toxic",
    "tutor:waterfall",
    "tutor:watergun",
    "tutor:waterpulse",
    "tutor:whirlpool",
    "tutor:zapcannon"
  ],
  "labels": [
    "gen2"
  ],
  "pokedex": [
    "cobblemon.species.lanturn.desc"
  ],
  "preEvolution": "chinchou",
  "evolutions": [],
  "baseScale": 1,
  "hitbox": {
    "width": 1,
    "height": 1,
    "fixed": false
  },
  "baseFriendship": 50,
  "evYield": {
    "hp": 2,
    "attack": 0,
    "defence": 0,
    "special_attack": 0,
    "special_defence": 0,
    "speed": 0
  },
  "height": 12,
  "weight": 225,
  "aspects": [],
  "cannotDynamax": false
}