{
  "implemented": true,
  "name": "Quilava",
  "nationalPokedexNumber": 156,
  "primaryType": "fire",
  "abilities": [
    "blaze",
    "h:flashfire"
  ],
  "drops": {
    "amount": 1,
    "entries": [
      {
        "item": "cobblemon:charcoal_stick",
        "percentage": 10.0
      }
    ]
  },
  "features": ["region_bias"],
  "forms": [
    {
      "name": "Hisui Bias",
      "primaryType": "fire",
      "abilities": [
        "blaze",
        "h:flashfire"
      ],
      "drops": {
        "amount": 1,
        "entries": [
          {
            "item": "cobblemon:charcoal_stick",
            "percentage": 10.0
          }
        ]
      },
      "baseStats": {
        "hp": 58,
        "attack": 64,
        "defence": 58,
        "special_attack": 80,
        "special_defence": 65,
        "speed": 80
      },
      "catchRate": 45,
      "maleRatio": 0.875,
      "shoulderMountable": false,
      "baseExperienceYield": 142,
      "experienceGroup": "medium_slow",
      "eggCycles": 20,
      "eggGroups": [
        "field"
      ],
      "behaviour": {
        "resting": {
          "canSleep": true,
          "willSleepOnBed": false,
          "depth": "normal",
          "light": "0-4"
        },
        "moving": {
          "walk": {
            "walkSpeed": 0.2
          }
        }
      },
      "moves": [
        "1:leer",
        "1:smokescreen",
        "1:tackle",
        "10:ember",
        "13:quickattack",
        "20:flamewheel",
        "24:defensecurl",
        "31:swift",
        "35:flamecharge",
        "42:lavaplume",
        "46:flamethrower",
        "53:inferno",
        "57:rollout",
        "64:doubleedge",
        "68:burnup",
        "68:overheat",
        "75:eruption",
        "tm:aerialace",
        "tm:attract",
        "tm:bodyslam",
        "tm:brickbreak",
        "tm:burningjealousy",
        "tm:captivate",
        "tm:confide",
        "tm:curse",
        "tm:cut",
        "tm:dig",
        "tm:doubleedge",
        "tm:doubleteam",
        "tm:endeavor",
        "tm:endure",
        "tm:facade",
        "tm:fireblast",
        "tm:firefang",
        "tm:firepledge",
        "tm:firespin",
        "tm:flamecharge",
        "tm:flamethrower",
        "tm:flareblitz",
        "tm:focuspunch",
        "tm:frustration",
        "tm:heatwave",
        "tm:hiddenpower",
        "tm:incinerate",
        "tm:ironhead",
        "tm:naturalgift",
        "tm:naturepower",
        "tm:overheat",
        "tm:playrough",
        "tm:protect",
        "tm:rest",
        "tm:return",
        "tm:reversal",
        "tm:roar",
        "tm:rocksmash",
        "tm:round",
        "tm:secretpower",
        "tm:sleeptalk",
        "tm:strength",
        "tm:substitute",
        "tm:sunnyday",
        "tm:swagger",
        "tm:swift",
        "tm:takedown",
        "tm:temperflare",
        "tm:terablast",
        "tm:toxic",
        "tm:wildcharge",
        "tm:willowisp",
        "tm:workup",
        "tm:zenheadbutt",
        "tutor:attract",
        "tutor:bodyslam",
        "tutor:covet",
        "tutor:curse",
        "tutor:cut",
        "tutor:defensecurl",
        "tutor:detect",
        "tutor:dig",
        "tutor:doubleedge",
        "tutor:doubleteam",
        "tutor:ember",
        "tutor:endure",
        "tutor:fireblast",
        "tutor:firepledge",
        "tutor:flamethrower",
        "tutor:flamewheel",
        "tutor:focuspunch",
        "tutor:frustration",
        "tutor:furycutter",
        "tutor:headbutt",
        "tutor:heatwave",
        "tutor:hiddenpower",
        "tutor:irontail",
        "tutor:leer",
        "tutor:mimic",
        "tutor:mudslap",
        "tutor:protect",
        "tutor:quickattack",
        "tutor:rest",
        "tutor:return",
        "tutor:roar",
        "tutor:rocksmash",
        "tutor:rollout",
        "tutor:sleeptalk",
        "tutor:smokescreen",
        "tutor:snore",
        "tutor:strength",
        "tutor:substitute",
        "tutor:sunnyday",
        "tutor:swagger",
        "tutor:swift",
        "tutor:tackle",
        "tutor:toxic"
      ],
      "labels": [
        "gen2",
        "hisui_regional"
      ],
      "preEvolution": "cyndaquil region_bias=hisui",
      "evolutions": [
        {
          "id": "hisui_quilava_hisui_typhlosion",
          "variant": "level_up",
          "result": "typhlosion hisuian",
          "consumeHeldItem": false,
          "learnableMoves": [
            "infernalparade"
          ],
          "requirements": [
            {
              "variant": "level",
              "minLevel": 36
            }
          ]
        },
        {
          "id": "hisui_quilava_typhlosion",
          "variant": "level_up",
          "result": "typhlosion",
          "consumeHeldItem": false,
          "learnableMoves": [],
          "requirements": [
            {
              "variant": "level",
              "minLevel": 36
            },
            {
              "variant": "biome",
              "biomeCondition": "#cobblemon:is_temperate"
            },
            {
              "variant": "biome",
              "biomeAnticondition": "#cobblemon:is_spooky"
            }
          ]
        }
      ],
      "baseScale": 0.7,
      "hitbox": {
        "width": 1,
        "height": 0.9,
        "fixed": false
      },
      "baseFriendship": 70,
      "evYield": {
        "hp": 0,
        "attack": 0,
        "defence": 0,
        "special_attack": 1,
        "special_defence": 0,
        "speed": 1
      },
      "height": 9,
      "weight": 190,
      "aspects": ["region-bias-hisui"],
      "cannotDynamax": false
    }
  ],
  "baseStats": {
    "hp": 58,
    "attack": 64,
    "defence": 58,
    "special_attack": 80,
    "special_defence": 65,
    "speed": 80
  },
  "catchRate": 45,
  "maleRatio": 0.875,
  "shoulderMountable": false,
  "baseExperienceYield": 142,
  "experienceGroup": "medium_slow",
  "eggCycles": 20,
  "eggGroups": [
    "field"
  ],
  "behaviour": {
    "resting": {
      "canSleep": true,
      "willSleepOnBed": false,
      "depth": "normal",
      "light": "0-4"
    },
    "moving": {
      "walk": {
        "walkSpeed": 0.2
      }
    }
  },
  "moves": [
    "1:leer",
    "1:smokescreen",
    "1:tackle",
    "10:ember",
    "13:quickattack",
    "20:flamewheel",
    "24:defensecurl",
    "31:swift",
    "35:flamecharge",
    "42:lavaplume",
    "46:flamethrower",
    "53:inferno",
    "57:rollout",
    "64:doubleedge",
    "68:burnup",
    "68:overheat",
    "75:eruption",
    "tm:aerialace",
    "tm:attract",
    "tm:bodyslam",
    "tm:brickbreak",
    "tm:burningjealousy",
    "tm:captivate",
    "tm:confide",
    "tm:curse",
    "tm:cut",
    "tm:dig",
    "tm:doubleedge",
    "tm:doubleteam",
    "tm:endeavor",
    "tm:endure",
    "tm:facade",
    "tm:fireblast",
    "tm:firefang",
    "tm:firepledge",
    "tm:firespin",
    "tm:flamecharge",
    "tm:flamethrower",
    "tm:flareblitz",
    "tm:focuspunch",
    "tm:frustration",
    "tm:heatwave",
    "tm:hiddenpower",
    "tm:incinerate",
    "tm:ironhead",
    "tm:naturalgift",
    "tm:naturepower",
    "tm:overheat",
    "tm:playrough",
    "tm:protect",
    "tm:rest",
    "tm:return",
    "tm:reversal",
    "tm:roar",
    "tm:rocksmash",
    "tm:round",
    "tm:secretpower",
    "tm:sleeptalk",
    "tm:strength",
    "tm:substitute",
    "tm:sunnyday",
    "tm:swagger",
    "tm:swift",
    "tm:takedown",
    "tm:temperflare",
    "tm:terablast",
    "tm:toxic",
    "tm:wildcharge",
    "tm:willowisp",
    "tm:workup",
    "tm:zenheadbutt",
    "tutor:attract",
    "tutor:bodyslam",
    "tutor:covet",
    "tutor:curse",
    "tutor:cut",
    "tutor:defensecurl",
    "tutor:detect",
    "tutor:dig",
    "tutor:doubleedge",
    "tutor:doubleteam",
    "tutor:ember",
    "tutor:endure",
    "tutor:fireblast",
    "tutor:firepledge",
    "tutor:flamethrower",
    "tutor:flamewheel",
    "tutor:focuspunch",
    "tutor:frustration",
    "tutor:furycutter",
    "tutor:headbutt",
    "tutor:heatwave",
    "tutor:hiddenpower",
    "tutor:irontail",
    "tutor:leer",
    "tutor:mimic",
    "tutor:mudslap",
    "tutor:protect",
    "tutor:quickattack",
    "tutor:rest",
    "tutor:return",
    "tutor:roar",
    "tutor:rocksmash",
    "tutor:rollout",
    "tutor:sleeptalk",
    "tutor:smokescreen",
    "tutor:snore",
    "tutor:strength",
    "tutor:substitute",
    "tutor:sunnyday",
    "tutor:swagger",
    "tutor:swift",
    "tutor:tackle",
    "tutor:toxic"
  ],
  "labels": [
    "gen2"
  ],
  "pokedex": [
    "cobblemon.species.quilava.desc"
  ],
  "preEvolution": "cyndaquil",
  "evolutions": [
    {
      "id": "quilava_typhlosion",
      "variant": "level_up",
      "result": "typhlosion",
      "consumeHeldItem": false,
      "learnableMoves": [],
      "requirements": [
        {
          "variant": "level",
          "minLevel": 36
        }
      ]
    },
    {
      "id": "quilava_hisui_typhlosion",
      "variant": "level_up",
      "result": "typhlosion hisuian",
      "consumeHeldItem": false,
      "learnableMoves": [
        "infernalparade"
      ],
      "requirements": [
        {
          "variant": "level",
          "minLevel": 36
        },
        {
          "variant": "biome",
          "biomeCondition": "#cobblemon:regional_bias_evolutions/cyndaquil_quilava_hisui_bias"
        }
      ]
    }
  ],
  "baseScale": 0.7,
  "hitbox": {
    "width": 1,
    "height": 0.9,
    "fixed": false
  },
  "baseFriendship": 70,
  "evYield": {
    "hp": 0,
    "attack": 0,
    "defence": 0,
    "special_attack": 1,
    "special_defence": 0,
    "speed": 1
  },
  "height": 9,
  "weight": 190,
  "aspects": [],
  "cannotDynamax": false
}