{
  "implemented": true,
  "name": "Aurorus",
  "nationalPokedexNumber": 699,
  "primaryType": "rock",
  "secondaryType": "ice",
  "abilities": [
    "refrigerate",
    "h:snowwarning"
  ],
  "baseStats": {
    "hp": 123,
    "attack": 77,
    "defence": 72,
    "special_attack": 99,
    "special_defence": 92,
    "speed": 58
  },
  "behaviour": {
    "resting": {
      "canSleep": true,
      "depth": "normal",
      "light": "0-4"
    },
    "moving": {
      "walk": {
        "walkSpeed": 0.2
      }
    }
  },
  "catchRate": 45,
  "maleRatio": 0.875,
  "shoulderMountable": false,
  "baseExperienceYield": 104,
  "experienceGroup": "medium_fast",
  "eggCycles": 30,
  "eggGroups": [
    "monster"
  ],
  "moves": [
    "1:ancientpower",
    "1:encore",
    "1:growl",
    "1:powdersnow",
    "1:rockthrow",
    "12:icywind",
    "15:takedown",
    "16:round",
    "20:mist",
    "24:aurorabeam",
    "28:thunderwave",
    "32:naturepower",
    "34:avalanche",
    "36:freezedry",
    "42:icebeam",
    "48:lightscreen",
    "54:hail",
    "60:blizzard",
    "66:hyperbeam",
    "tm:attract",
    "tm:avalanche",
    "tm:blizzard",
    "tm:bodyslam",
    "tm:bulldoze",
    "tm:calmmind",
    "tm:chargebeam",
    "tm:confide",
    "tm:darkpulse",
    "tm:doubleteam",
    "tm:dragontail",
    "tm:dreameater",
    "tm:earthpower",
    "tm:earthquake",
    "tm:echoedvoice",
    "tm:encore",
    "tm:endure",
    "tm:facade",
    "tm:flash",
    "tm:flashcannon",
    "tm:frostbreath",
    "tm:frustration",
    "tm:gigaimpact",
    "tm:hail",
    "tm:hiddenpower",
    "tm:hyperbeam",
    "tm:hypervoice",
    "tm:icebeam",
    "tm:iciclespear",
    "tm:icywind",
    "tm:irondefense",
    "tm:ironhead",
    "tm:irontail",
    "tm:lightscreen",
    "tm:mudshot",
    "tm:naturepower",
    "tm:outrage",
    "tm:protect",
    "tm:psychic",
    "tm:psychup",
    "tm:raindance",
    "tm:reflect",
    "tm:rest",
    "tm:return",
    "tm:roar",
    "tm:rockblast",
    "tm:rockpolish",
    "tm:rockslide",
    "tm:rocksmash",
    "tm:rocktomb",
    "tm:round",
    "tm:safeguard",
    "tm:sandstorm",
    "tm:secretpower",
    "tm:sleeptalk",
    "tm:snore",
    "tm:stealthrock",
    "tm:stoneedge",
    "tm:substitute",
    "tm:swagger",
    "tm:thunder",
    "tm:thunderbolt",
    "tm:thunderwave",
    "tm:toxic",
    "tm:weatherball",
    "tm:zenheadbutt",
    "tutor:aquatail",
    "tutor:earthpower",
    "tutor:hypervoice",
    "tutor:icywind",
    "tutor:irondefense",
    "tutor:ironhead",
    "tutor:irontail",
    "tutor:magnetrise",
    "tutor:meteorbeam",
    "tutor:outrage",
    "tutor:snore",
    "tutor:stealthrock",
    "tutor:waterpulse",
    "tutor:zenheadbutt"
  ],
  "labels": [
    "gen6"
  ],
  "pokedex": [
    "cobblemon.species.aurorus.desc"
  ],
  "preEvolution": "amaura",
  "evolutions": [],
  "baseScale": 1.25,
  "hitbox": {
    "width": 2.4,
    "height": 5.1,
    "fixed": false
  },
  "baseFriendship": 50,
  "evYield": {
    "hp": 2,
    "attack": 0,
    "defence": 0,
    "special_attack": 0,
    "special_defence": 0,
    "speed": 0
  },
  "height": 27,
  "weight": 2250,
  "aspects": [],
  "cannotDynamax": false,
  "drops": {
    "amount": 1,
    "entries": [
      {
        "item": "cobblemon:never_melt_ice",
        "percentage": 10.0
      }
    ]
  }
}