{
  "implemented": true,
  "name": "Alomomola",
  "nationalPokedexNumber": 594,
  "primaryType": "water",
  "abilities": [
    "healer",
    "hydration",
    "h:regenerator"
  ],
  "drops": {
    "amount": 3,
    "entries": [
      {
        "item": "minecraft:cod"
      },
      {
        "item": "minecraft:bone_meal",
        "percentage": 5.0
      },
      {
        "item": "cobblemon:deep_sea_scale",
        "percentage": 5.0
      }
    ]
  },
  "baseStats": {
    "hp": 165,
    "attack": 75,
    "defence": 80,
    "special_attack": 40,
    "special_defence": 45,
    "speed": 65
  },
  "behaviour": {
    "moving": {
      "walk": {
        "avoidsLand": true
      },
      "swim": {
        "swimSpeed": 0.3,
        "canSwimInWater": true,
        "canBreatheUnderwater": true
      }
    },
    "resting": {
      "canSleep": true,
      "willSleepOnBed": false,
      "depth": "normal",
      "light": "0-4"
    }
  },
  "catchRate": 75,
  "maleRatio": 0.5,
  "shoulderMountable": false,
  "baseExperienceYield": 165,
  "experienceGroup": "fast",
  "eggCycles": 40,
  "eggGroups": [
    "water_1",
    "water_2"
  ],
  "moves": [
    "1:playnice",
    "1:pound",
    "1:watersport",
    "5:aquaring",
    "9:aquajet",
    "13:doubleslap",
    "13:helpinghand",
    "13:wideguard",
    "17:healpulse",
    "21:protect",
    "25:waterpulse",
    "29:healingwish",
    "29:wakeupslap",
    "33:soak",
    "37:wish",
    "41:brine",
    "45:safeguard",
    "49:whirlpool",
    "55:hydropump",
    "egg:bounce",
    "egg:endure",
    "egg:mirrorcoat",
    "egg:mist",
    "egg:painsplit",
    "egg:refresh",
    "egg:tickle",
    "tm:acrobatics",
    "tm:alluringvoice",
    "tm:attract",
    "tm:batonpass",
    "tm:blizzard",
    "tm:bodyslam",
    "tm:calmmind",
    "tm:chillingwater",
    "tm:confide",
    "tm:dive",
    "tm:doubleteam",
    "tm:endure",
    "tm:facade",
    "tm:flipturn",
    "tm:frustration",
    "tm:gigaimpact",
    "tm:hail",
    "tm:helpinghand",
    "tm:hiddenpower",
    "tm:hydropump",
    "tm:hyperbeam",
    "tm:icebeam",
    "tm:icywind",
    "tm:lightscreen",
    "tm:liquidation",
    "tm:mistyterrain",
    "tm:painsplit",
    "tm:playrough",
    "tm:protect",
    "tm:psychic",
    "tm:psychup",
    "tm:raindance",
    "tm:rest",
    "tm:return",
    "tm:round",
    "tm:safeguard",
    "tm:scald",
    "tm:scaleshot",
    "tm:secretpower",
    "tm:shadowball",
    "tm:skillswap",
    "tm:sleeptalk",
    "tm:snowscape",
    "tm:substitute",
    "tm:surf",
    "tm:swagger",
    "tm:takedown",
    "tm:terablast",
    "tm:toxic",
    "tm:waterfall",
    "tm:waterpulse",
    "tm:whirlpool",
    "tm:zenheadbutt",
    "tutor:aquaring",
    "tutor:bounce",
    "tutor:helpinghand",
    "tutor:icywind",
    "tutor:knockoff",
    "tutor:liquidation",
    "tutor:magiccoat",
    "tutor:mirrorcoat",
    "tutor:painsplit",
    "tutor:sleeptalk",
    "tutor:snore",
    "tutor:waterpulse"
  ],
  "labels": [
    "gen5"
  ],
  "pokedex": [
    "cobblemon.species.alomomola.desc"
  ],
  "baseScale": 1,
  "hitbox": {
    "width": 0.8,
    "height": 1.1,
    "fixed": false
  },
  "baseFriendship": 70,
  "evYield": {
    "hp": 2,
    "attack": 0,
    "defence": 0,
    "special_attack": 0,
    "special_defence": 0,
    "speed": 0
  },
  "height": 12,
  "weight": 316,
  "cannotDynamax": false
}