{
  "implemented": true,
  "name": "Bastiodon",
  "nationalPokedexNumber": 411,
  "primaryType": "rock",
  "secondaryType": "steel",
  "abilities": [
    "sturdy",
    "h:soundproof"
  ],
  "drops": {
    "amount": 2,
    "entries": [
      {
        "item": "minecraft:bones",
        "quantityRange": "0-2"
      }
    ]
  },
  "baseStats": {
    "hp": 60,
    "attack": 52,
    "defence": 168,
    "special_attack": 47,
    "special_defence": 138,
    "speed": 30
  },
  "catchRate": 45,
  "maleRatio": 0.875,
  "shoulderMountable": false,
  "baseExperienceYield": 173,
  "experienceGroup": "erratic",
  "eggCycles": 30,
  "eggGroups": [
    "monster"
  ],
  "behaviour": {
    "moving" : {
      "walk": {
        "walkSpeed": 0.12
      }
    }
  },
  "moves": [
    "1:block",
    "1:metalsound",
    "1:protect",
    "1:tackle",
    "1:taunt",
    "1:wideguard",
    "15:takedown",
    "19:irondefense",
    "24:swagger",
    "28:ancientpower",
    "30:block",
    "36:endure",
    "43:metalburst",
    "51:ironhead",
    "52:ironhead",
    "58:heavyslam",
    "tm:attract",
    "tm:avalanche",
    "tm:blizzard",
    "tm:bodypress",
    "tm:bodyslam",
    "tm:bulldoze",
    "tm:captivate",
    "tm:confide",
    "tm:curse",
    "tm:dig",
    "tm:doubleedge",
    "tm:doubleteam",
    "tm:earthpower",
    "tm:earthquake",
    "tm:endure",
    "tm:facade",
    "tm:fireblast",
    "tm:flamethrower",
    "tm:flashcannon",
    "tm:foulplay",
    "tm:frustration",
    "tm:gigaimpact",
    "tm:hardpress",
    "tm:heavyslam",
    "tm:hiddenpower",
    "tm:hyperbeam",
    "tm:icebeam",
    "tm:incinerate",
    "tm:irondefense",
    "tm:ironhead",
    "tm:irontail",
    "tm:metalsound",
    "tm:meteorbeam",
    "tm:mudslap",
    "tm:naturalgift",
    "tm:outrage",
    "tm:powergem",
    "tm:protect",
    "tm:raindance",
    "tm:reflect",
    "tm:rest",
    "tm:return",
    "tm:reversal",
    "tm:roar",
    "tm:rockblast",
    "tm:rockpolish",
    "tm:rockslide",
    "tm:rocksmash",
    "tm:rocktomb",
    "tm:round",
    "tm:sandstorm",
    "tm:sandtomb",
    "tm:scaryface",
    "tm:scorchingsands",
    "tm:secretpower",
    "tm:shockwave",
    "tm:sleeptalk",
    "tm:smackdown",
    "tm:stealthrock",
    "tm:steelbeam",
    "tm:stompingtantrum",
    "tm:stoneedge",
    "tm:strength",
    "tm:substitute",
    "tm:sunnyday",
    "tm:swagger",
    "tm:takedown",
    "tm:taunt",
    "tm:terablast",
    "tm:thunder",
    "tm:thunderbolt",
    "tm:torment",
    "tm:toxic",
    "tm:trailblaze",
    "tutor:ancientpower",
    "tutor:block",
    "tutor:earthpower",
    "tutor:headbutt",
    "tutor:irondefense",
    "tutor:ironhead",
    "tutor:irontail",
    "tutor:magiccoat",
    "tutor:magnetrise",
    "tutor:mudslap",
    "tutor:outrage",
    "tutor:shockwave",
    "tutor:sleeptalk",
    "tutor:snore",
    "tutor:stealthrock",
    "tutor:stompingtantrum"
  ],
  "labels": [
    "gen4"
  ],
  "pokedex": [
    "cobblemon.species.bastiodon.desc"
  ],
  "preEvolution": "shieldon",
  "evolutions": [],
  "baseScale": 1,
  "hitbox": {
    "width": 1.75,
    "height": 1.95,
    "fixed": false
  },
  "baseFriendship": 70,
  "evYield": {
    "hp": 0,
    "attack": 0,
    "defence": 2,
    "special_attack": 0,
    "special_defence": 0,
    "speed": 0
  },
  "height": 13,
  "weight": 1495,
  "aspects": [],
  "cannotDynamax": false
}