{
  "implemented": true,
  "name": "Prinplup",
  "nationalPokedexNumber": 394,
  "primaryType": "water",
  "abilities": [
    "torrent",
    "h:defiant"
  ],
  "drops": {
    "amount": 4,
    "entries": [
      {
        "item": "minecraft:feather",
        "quantityRange": "0-2"
      },
      {
        "item": "minecraft:chicken"
      },
      {
        "item": "cobblemon:mystic_water",
        "percentage": 10.0
      }
    ]
  },
  "baseStats": {
    "hp": 64,
    "attack": 66,
    "defence": 68,
    "special_attack": 81,
    "special_defence": 76,
    "speed": 50
  },
  "catchRate": 45,
  "maleRatio": 0.875,
  "shoulderMountable": false,
  "baseExperienceYield": 142,
  "experienceGroup": "medium_slow",
  "eggCycles": 20,
  "eggGroups": [
    "water_1",
    "field"
  ],
  "behaviour": {
    "moving": {
      "swim": {
        "canSwimInWater": true,
        "canBreatheUnderwater": true
      },
      "walk": {
        "walkSpeed": 0.3
      }
    },
    "resting": {
      "canSleep": true,
      "willSleepOnBed": false,
      "depth": "normal",
      "light": "0-4"
    }
  },
  "moves": [
    "1:bubble",
    "1:growl",
    "1:metalclaw",
    "1:tackle",
    "1:watergun",
    "8:bubble",
    "11:watersport",
    "15:peck",
    "16:metalclaw",
    "19:bide",
    "19:bubblebeam",
    "24:bide",
    "24:swagger",
    "28:furyattack",
    "33:brine",
    "37:whirlpool",
    "42:mist",
    "46:drillpeck",
    "50:hydropump",
    "51:hydropump",
    "tm:aerialace",
    "tm:agility",
    "tm:attract",
    "tm:blizzard",
    "tm:brickbreak",
    "tm:brine",
    "tm:captivate",
    "tm:charm",
    "tm:chillingwater",
    "tm:confide",
    "tm:cut",
    "tm:defog",
    "tm:dig",
    "tm:disarmingvoice",
    "tm:dive",
    "tm:doubleedge",
    "tm:doubleteam",
    "tm:echoedvoice",
    "tm:endure",
    "tm:facade",
    "tm:featherdance",
    "tm:fling",
    "tm:flipturn",
    "tm:frustration",
    "tm:grassknot",
    "tm:hail",
    "tm:haze",
    "tm:helpinghand",
    "tm:hiddenpower",
    "tm:honeclaws",
    "tm:hydropump",
    "tm:icebeam",
    "tm:icespinner",
    "tm:icywind",
    "tm:liquidation",
    "tm:metalclaw",
    "tm:naturalgift",
    "tm:pluck",
    "tm:protect",
    "tm:psychup",
    "tm:quash",
    "tm:raindance",
    "tm:rest",
    "tm:return",
    "tm:rocksmash",
    "tm:rocktomb",
    "tm:round",
    "tm:scald",
    "tm:secretpower",
    "tm:shadowclaw",
    "tm:sleeptalk",
    "tm:snowscape",
    "tm:stealthrock",
    "tm:strength",
    "tm:substitute",
    "tm:surf",
    "tm:swagger",
    "tm:swift",
    "tm:takedown",
    "tm:terablast",
    "tm:toxic",
    "tm:tripleaxel",
    "tm:waterfall",
    "tm:waterpledge",
    "tm:waterpulse",
    "tm:weatherball",
    "tm:whirlpool",
    "tm:workup",
    "tutor:covet",
    "tutor:defog",
    "tutor:dive",
    "tutor:headbutt",
    "tutor:icywind",
    "tutor:mudslap",
    "tutor:signalbeam",
    "tutor:sleeptalk",
    "tutor:snore",
    "tutor:stealthrock",
    "tutor:waterpledge",
    "tutor:waterpulse"
  ],
  "labels": [
    "gen4"
  ],
  "pokedex": [
    "cobblemon.species.prinplup.desc"
  ],
  "preEvolution": "piplup",
  "evolutions": [
    {
      "id": "prinplup_empoleon",
      "variant": "level_up",
      "result": "empoleon",
      "consumeHeldItem": false,
      "learnableMoves": [
        "aquajet"
      ],
      "requirements": [
        {
          "variant": "level",
          "minLevel": 36
        }
      ]
    }
  ],
  "baseScale": 0.75,
  "hitbox": {
    "width": 0.75,
    "height": 1.45,
    "fixed": false
  },
  "baseFriendship": 70,
  "evYield": {
    "hp": 0,
    "attack": 0,
    "defence": 0,
    "special_attack": 2,
    "special_defence": 0,
    "speed": 0
  },
  "height": 8,
  "weight": 230,
  "aspects": [],
  "cannotDynamax": false
}